com\epam\goldcertifproject\model\ApiResponse.class
com\epam\goldcertifproject\util\StringConstants.class
com\epam\goldcertifproject\model\Batch.class
com\epam\goldcertifproject\controller\CompanyController.class
com\epam\goldcertifproject\handler\GlobalExceptionHandler.class
com\epam\goldcertifproject\repository\BatchRepository.class
com\epam\goldcertifproject\GoldCertifProjectApplication.class
com\epam\goldcertifproject\model\Associate.class
com\epam\goldcertifproject\dto\ErrorResponse.class
com\epam\goldcertifproject\dto\BatchDTO.class
com\epam\goldcertifproject\repository\AssociateRepository.class
com\epam\goldcertifproject\util\ValueMapper.class
com\epam\goldcertifproject\exception\BatchException.class
com\epam\goldcertifproject\service\BatchService.class
com\epam\goldcertifproject\service\BatchServiceImpl.class
com\epam\goldcertifproject\dto\AssociateDTO.class
