C:\Users\Vamsikrishna_Tanniru\Downloads\GoldCertifProject\src\main\java\com\epam\goldcertifproject\model\Batch.java
C:\Users\Vamsikrishna_Tanniru\Downloads\GoldCertifProject\src\main\java\com\epam\goldcertifproject\service\BatchServiceImpl.java
C:\Users\Vamsikrishna_Tanniru\Downloads\GoldCertifProject\src\main\java\com\epam\goldcertifproject\exception\BatchException.java
C:\Users\Vamsikrishna_Tanniru\Downloads\GoldCertifProject\src\main\java\com\epam\goldcertifproject\dto\AssociateDTO.java
C:\Users\Vamsikrishna_Tanniru\Downloads\GoldCertifProject\src\main\java\com\epam\goldcertifproject\util\ValueMapper.java
C:\Users\Vamsikrishna_Tanniru\Downloads\GoldCertifProject\src\main\java\com\epam\goldcertifproject\controller\CompanyController.java
C:\Users\Vamsikrishna_Tanniru\Downloads\GoldCertifProject\src\main\java\com\epam\goldcertifproject\dto\ErrorResponse.java
C:\Users\Vamsikrishna_Tanniru\Downloads\GoldCertifProject\src\main\java\com\epam\goldcertifproject\util\StringConstants.java
C:\Users\Vamsikrishna_Tanniru\Downloads\GoldCertifProject\src\main\java\com\epam\goldcertifproject\handler\GlobalExceptionHandler.java
C:\Users\Vamsikrishna_Tanniru\Downloads\GoldCertifProject\src\main\java\com\epam\goldcertifproject\dto\BatchDTO.java
C:\Users\Vamsikrishna_Tanniru\Downloads\GoldCertifProject\src\main\java\com\epam\goldcertifproject\GoldCertifProjectApplication.java
C:\Users\Vamsikrishna_Tanniru\Downloads\GoldCertifProject\src\main\java\com\epam\goldcertifproject\repository\BatchRepository.java
C:\Users\Vamsikrishna_Tanniru\Downloads\GoldCertifProject\src\main\java\com\epam\goldcertifproject\model\ApiResponse.java
C:\Users\Vamsikrishna_Tanniru\Downloads\GoldCertifProject\src\main\java\com\epam\goldcertifproject\model\Associate.java
C:\Users\Vamsikrishna_Tanniru\Downloads\GoldCertifProject\src\main\java\com\epam\goldcertifproject\repository\AssociateRepository.java
C:\Users\Vamsikrishna_Tanniru\Downloads\GoldCertifProject\src\main\java\com\epam\goldcertifproject\service\BatchService.java
